1 1 2 2021-01-08T15:30:39.881330200 Very yummy.
2 1 2 2021-04-21T11:57:27.040418 Ez palkata uj kommentje.
3 1 1 2021-04-21T12:08:48.748612400 Ez gipszjakab uj kommentje.
4 2 2 2021-04-28T14:56:55.727522400 My favourite.
5 1 2 2021-05-17T22:03:29.713522500 asd
6 1 2 2021-05-17T22:17:14.999277400 Good.